#SEED 153000
#N 1000000
#r 0.5
#t/T  n(t/T) \hat{n}(t/T)
0	1	0.935916
0.001	1.00054	0.936425
0.002	1.00107	0.936915
0.003	1.00161	0.937424
0.004	1.00209	0.937877
0.005	1.00265	0.938393
0.006	1.00316	0.938877
0.007	1.0036	0.939288
0.008	1.00415	0.939801
0.009	1.00469	0.940302
0.01	1.00521	0.94079
0.011	1.0057	0.941246
0.012	1.00619	0.941712
0.013	1.00671	0.942192
0.014	1.00724	0.94269
0.015	1.00769	0.943112
0.016	1.00818	0.943576
0.017	1.00863	0.94399
0.018	1.00909	0.944428
0.019	1.00959	0.944892
0.02	1.01006	0.945332
0.021	1.01054	0.945784
0.022	1.01099	0.946207
0.023	1.01145	0.946632
0.024	1.0119	0.94705
0.025	1.01232	0.947449
0.026	1.01275	0.947853
0.027	1.01323	0.948295
0.028	1.01369	0.94873
0.029	1.01417	0.949177
0.03	1.01459	0.949576
0.031	1.01503	0.949981
0.032	1.0155	0.950418
0.033	1.01597	0.95086
0.034	1.01644	0.951303
0.035	1.01686	0.951699
0.036	1.01735	0.952156
0.037	1.01785	0.95262
0.038	1.01835	0.953092
0.039	1.01884	0.95355
0.04	1.01933	0.954007
0.041	1.01977	0.954421
0.042	1.02017	0.954792
0.043	1.02059	0.955187
0.044	1.02102	0.955594
0.045	1.02155	0.956081
0.046	1.022	0.956504
0.047	1.02248	0.956957
0.048	1.02295	0.957393
0.049	1.02341	0.957825
0.05	1.0238	0.958189
0.051	1.02425	0.958612
0.052	1.0247	0.959037
0.053	1.0251	0.959408
0.054	1.02553	0.959812
0.055	1.02595	0.960202
0.056	1.02639	0.960612
0.057	1.02682	0.961013
0.058	1.02722	0.961389
0.059	1.0277	0.961839
0.06	1.02813	0.962244
0.061	1.02852	0.962608
0.062	1.02895	0.963012
0.063	1.02933	0.963364
0.064	1.02971	0.963724
0.065	1.03008	0.964072
0.066	1.03048	0.964441
0.067	1.03082	0.964759
0.068	1.03123	0.965142
0.069	1.03163	0.965516
0.07	1.03205	0.965917
0.071	1.03247	0.966308
0.072	1.03294	0.966748
0.073	1.03331	0.967093
0.074	1.03369	0.967444
0.075	1.03405	0.967785
0.076	1.03448	0.968187
0.077	1.03496	0.968636
0.078	1.03534	0.968992
0.079	1.03576	0.969381
0.08	1.03615	0.969746
0.081	1.03656	0.970136
0.082	1.03695	0.970502
0.083	1.03734	0.970867
0.084	1.03774	0.971236
0.085	1.03811	0.971589
0.086	1.03844	0.971896
0.087	1.03885	0.972278
0.088	1.03919	0.972599
0.089	1.03961	0.972986
0.09	1.03994	0.973298
0.091	1.0403	0.973635
0.092	1.04068	0.973991
0.093	1.04103	0.974319
0.094	1.04138	0.974645
0.095	1.04173	0.97497
0.096	1.04212	0.975336
0.097	1.04249	0.975681
0.098	1.04282	0.975997
0.099	1.04312	0.976277
0.1	1.0435	0.97663
0.101	1.04385	0.976954
0.102	1.04419	0.977278
0.103	1.04454	0.977601
0.104	1.04494	0.977975
0.105	1.04531	0.978325
0.106	1.04562	0.978613
0.107	1.04596	0.978935
0.108	1.04634	0.979286
0.109	1.04666	0.979587
0.11	1.04705	0.979948
0.111	1.04739	0.980267
0.112	1.04774	0.980593
0.113	1.04808	0.980916
0.114	1.04848	0.981293
0.115	1.04886	0.981642
0.116	1.0492	0.981967
0.117	1.04954	0.982278
0.118	1.04992	0.982636
0.119	1.05022	0.982918
0.12	1.05053	0.98321
0.121	1.05085	0.983509
0.122	1.05123	0.983862
0.123	1.05156	0.984168
0.124	1.05189	0.984485
0.125	1.0522	0.984774
0.126	1.05251	0.985066
0.127	1.05284	0.985374
0.128	1.05316	0.985667
0.129	1.05349	0.985979
0.13	1.05385	0.986317
0.131	1.0542	0.986645
0.132	1.05451	0.986929
0.133	1.05482	0.987227
0.134	1.0551	0.987481
0.135	1.05536	0.987733
0.136	1.05572	0.988068
0.137	1.05604	0.98837
0.138	1.0564	0.988701
0.139	1.05667	0.988957
0.14	1.057	0.989267
0.141	1.05734	0.98958
0.142	1.05759	0.989812
0.143	1.05785	0.99006
0.144	1.05821	0.990398
0.145	1.05849	0.990659
0.146	1.05885	0.990995
0.147	1.05914	0.991264
0.148	1.05941	0.991522
0.149	1.05966	0.991752
0.15	1.05996	0.992031
0.151	1.06026	0.992312
0.152	1.06052	0.99256
0.153	1.06075	0.992778
0.154	1.06112	0.993115
0.155	1.06139	0.993373
0.156	1.06176	0.993717
0.157	1.06205	0.993986
0.158	1.06226	0.99419
0.159	1.0625	0.994411
0.16	1.06282	0.994708
0.161	1.06318	0.995045
0.162	1.06349	0.995333
0.163	1.06374	0.995573
0.164	1.064	0.995818
0.165	1.06424	0.996043
0.166	1.06456	0.99634
0.167	1.06481	0.996569
0.168	1.06512	0.996868
0.169	1.06543	0.997149
0.17	1.06565	0.997358
0.171	1.06595	0.997644
0.172	1.06625	0.997923
0.173	1.06652	0.998176
0.174	1.06682	0.998454
0.175	1.06705	0.998668
0.176	1.06733	0.998936
0.177	1.06766	0.999238
0.178	1.06795	0.999512
0.179	1.06818	0.999727
0.18	1.06845	0.999976
0.181	1.0687	1.00022
0.182	1.06897	1.00047
0.183	1.0692	1.00068
0.184	1.06948	1.00094
0.185	1.06975	1.0012
0.186	1.07005	1.00148
0.187	1.07026	1.00168
0.188	1.07044	1.00184
0.189	1.07066	1.00205
0.19	1.07094	1.00231
0.191	1.07111	1.00247
0.192	1.07137	1.00272
0.193	1.07158	1.00291
0.194	1.07185	1.00316
0.195	1.07212	1.00342
0.196	1.07232	1.0036
0.197	1.07259	1.00385
0.198	1.07283	1.00408
0.199	1.07309	1.00432
0.2	1.07337	1.00459
0.201	1.07364	1.00483
0.202	1.07384	1.00502
0.203	1.0741	1.00527
0.204	1.07437	1.00552
0.205	1.07459	1.00572
0.206	1.07484	1.00596
0.207	1.07504	1.00615
0.208	1.07526	1.00635
0.209	1.07547	1.00655
0.21	1.07568	1.00674
0.211	1.07586	1.00691
0.212	1.07607	1.00711
0.213	1.07631	1.00733
0.214	1.07651	1.00752
0.215	1.07674	1.00774
0.216	1.07694	1.00792
0.217	1.07715	1.00812
0.218	1.07739	1.00835
0.219	1.07764	1.00859
0.22	1.07783	1.00876
0.221	1.07808	1.00899
0.222	1.07829	1.00919
0.223	1.07852	1.0094
0.224	1.07877	1.00964
0.225	1.07894	1.0098
0.226	1.07918	1.01002
0.227	1.0794	1.01022
0.228	1.07964	1.01045
0.229	1.07986	1.01066
0.23	1.08009	1.01088
0.231	1.08035	1.01111
0.232	1.08054	1.01129
0.233	1.08081	1.01155
0.234	1.08098	1.01171
0.235	1.08116	1.01188
0.236	1.08136	1.01207
0.237	1.08162	1.01231
0.238	1.08183	1.01251
0.239	1.08203	1.01269
0.24	1.08223	1.01288
0.241	1.08239	1.01303
0.242	1.08262	1.01324
0.243	1.08274	1.01335
0.244	1.083	1.01359
0.245	1.08317	1.01376
0.246	1.0834	1.01397
0.247	1.08353	1.01409
0.248	1.08376	1.01431
0.249	1.08386	1.01441
0.25	1.08401	1.01454
0.251	1.08413	1.01465
0.252	1.08436	1.01487
0.253	1.08459	1.01509
0.254	1.08467	1.01516
0.255	1.08485	1.01533
0.256	1.08496	1.01543
0.257	1.08516	1.01562
0.258	1.08531	1.01576
0.259	1.08549	1.01593
0.26	1.08566	1.01608
0.261	1.08583	1.01624
0.262	1.08604	1.01644
0.263	1.08617	1.01657
0.264	1.08637	1.01676
0.265	1.08651	1.01688
0.266	1.08666	1.01703
0.267	1.08682	1.01718
0.268	1.08701	1.01735
0.269	1.08716	1.01749
0.27	1.08729	1.01761
0.271	1.08742	1.01774
0.272	1.08755	1.01786
0.273	1.08763	1.01794
0.274	1.08777	1.01807
0.275	1.08797	1.01825
0.276	1.08813	1.0184
0.277	1.0882	1.01847
0.278	1.08832	1.01857
0.279	1.08848	1.01872
0.28	1.08859	1.01883
0.281	1.08872	1.01895
0.282	1.08887	1.01909
0.283	1.08906	1.01927
0.284	1.08925	1.01945
0.285	1.08943	1.01962
0.286	1.08966	1.01984
0.287	1.08979	1.01996
0.288	1.08995	1.0201
0.289	1.0901	1.02024
0.29	1.0902	1.02034
0.291	1.09025	1.02039
0.292	1.0904	1.02052
0.293	1.09056	1.02067
0.294	1.09071	1.02081
0.295	1.09086	1.02095
0.296	1.09097	1.02105
0.297	1.09115	1.02122
0.298	1.09131	1.02137
0.299	1.09143	1.02149
0.3	1.09157	1.02161
0.301	1.09167	1.02171
0.302	1.09181	1.02184
0.303	1.09196	1.02198
0.304	1.0921	1.02212
0.305	1.0922	1.02221
0.306	1.09233	1.02233
0.307	1.09245	1.02244
0.308	1.09257	1.02255
0.309	1.09264	1.02262
0.31	1.09276	1.02273
0.311	1.09286	1.02283
0.312	1.09297	1.02293
0.313	1.09306	1.02301
0.314	1.09321	1.02315
0.315	1.09338	1.02331
0.316	1.09347	1.0234
0.317	1.09366	1.02358
0.318	1.09378	1.02369
0.319	1.09386	1.02376
0.32	1.09403	1.02392
0.321	1.0941	1.02398
0.322	1.09423	1.02411
0.323	1.09437	1.02424
0.324	1.09456	1.02442
0.325	1.09467	1.02452
0.326	1.09479	1.02463
0.327	1.09492	1.02475
0.328	1.09502	1.02484
0.329	1.09515	1.02497
0.33	1.09532	1.02513
0.331	1.09542	1.02522
0.332	1.09553	1.02532
0.333	1.09568	1.02546
0.334	1.0958	1.02558
0.335	1.09588	1.02565
0.336	1.096	1.02576
0.337	1.09617	1.02593
0.338	1.09623	1.02598
0.339	1.09632	1.02607
0.34	1.09642	1.02616
0.341	1.09654	1.02627
0.342	1.09667	1.0264
0.343	1.09679	1.0265
0.344	1.09687	1.02658
0.345	1.09694	1.02664
0.346	1.09703	1.02673
0.347	1.09709	1.02679
0.348	1.09707	1.02676
0.349	1.09716	1.02685
0.35	1.09727	1.02695
0.351	1.09736	1.02704
0.352	1.09746	1.02713
0.353	1.09754	1.02721
0.354	1.09759	1.02725
0.355	1.09763	1.02729
0.356	1.09777	1.02742
0.357	1.09786	1.02751
0.358	1.09795	1.02759
0.359	1.09803	1.02767
0.36	1.09807	1.0277
0.361	1.09814	1.02777
0.362	1.09824	1.02786
0.363	1.09837	1.02798
0.364	1.09853	1.02813
0.365	1.0986	1.0282
0.366	1.09865	1.02825
0.367	1.0987	1.02829
0.368	1.0988	1.02838
0.369	1.09889	1.02847
0.37	1.09894	1.02852
0.371	1.09908	1.02865
0.372	1.0991	1.02867
0.373	1.09919	1.02875
0.374	1.09922	1.02878
0.375	1.09927	1.02882
0.376	1.09938	1.02893
0.377	1.09947	1.02901
0.378	1.09949	1.02903
0.379	1.09953	1.02907
0.38	1.09962	1.02915
0.381	1.09968	1.02921
0.382	1.09968	1.0292
0.383	1.09974	1.02927
0.384	1.09984	1.02936
0.385	1.09995	1.02946
0.386	1.10005	1.02955
0.387	1.10015	1.02965
0.388	1.10019	1.02969
0.389	1.10027	1.02977
0.39	1.10037	1.02985
0.391	1.1004	1.02988
0.392	1.10043	1.02991
0.393	1.10051	1.02999
0.394	1.10054	1.03001
0.395	1.10059	1.03006
0.396	1.10064	1.0301
0.397	1.10068	1.03014
0.398	1.10072	1.03019
0.399	1.10069	1.03015
0.4	1.10076	1.03022
0.401	1.10079	1.03024
0.402	1.10079	1.03025
0.403	1.10082	1.03027
0.404	1.10084	1.03029
0.405	1.10087	1.03032
0.406	1.10089	1.03034
0.407	1.10093	1.03038
0.408	1.10098	1.03043
0.409	1.101	1.03044
0.41	1.10102	1.03047
0.411	1.10101	1.03045
0.412	1.10105	1.03049
0.413	1.10104	1.03048
0.414	1.10109	1.03053
0.415	1.10113	1.03056
0.416	1.10117	1.0306
0.417	1.10119	1.03062
0.418	1.10122	1.03065
0.419	1.10128	1.0307
0.42	1.10122	1.03065
0.421	1.10125	1.03068
0.422	1.1013	1.03072
0.423	1.1013	1.03073
0.424	1.10134	1.03076
0.425	1.10135	1.03077
0.426	1.10133	1.03075
0.427	1.10138	1.0308
0.428	1.10139	1.03081
0.429	1.10133	1.03075
0.43	1.10129	1.03071
0.431	1.10135	1.03077
0.432	1.10137	1.03079
0.433	1.1014	1.03082
0.434	1.10142	1.03084
0.435	1.10142	1.03084
0.436	1.10139	1.0308
0.437	1.10142	1.03084
0.438	1.10149	1.03091
0.439	1.10151	1.03092
0.44	1.10153	1.03094
0.441	1.10152	1.03093
0.442	1.10153	1.03094
0.443	1.10145	1.03086
0.444	1.10147	1.03088
0.445	1.10151	1.03092
0.446	1.10153	1.03094
0.447	1.10153	1.03094
0.448	1.10155	1.03096
0.449	1.10157	1.03097
0.45	1.10154	1.03095
0.451	1.1015	1.03091
0.452	1.10149	1.0309
0.453	1.10144	1.03086
0.454	1.10143	1.03084
0.455	1.10143	1.03085
0.456	1.10139	1.03081
0.457	1.10132	1.03074
0.458	1.10128	1.03071
0.459	1.10128	1.03071
0.46	1.10121	1.03064
0.461	1.10125	1.03068
0.462	1.10125	1.03067
0.463	1.10125	1.03067
0.464	1.10127	1.0307
0.465	1.10128	1.03071
0.466	1.10129	1.03072
0.467	1.10125	1.03067
0.468	1.10122	1.03065
0.469	1.10119	1.03062
0.47	1.10115	1.03058
0.471	1.10116	1.03059
0.472	1.10116	1.0306
0.473	1.1012	1.03063
0.474	1.10122	1.03065
0.475	1.10117	1.0306
0.476	1.10115	1.03059
0.477	1.10114	1.03057
0.478	1.10118	1.03061
0.479	1.10123	1.03066
0.48	1.10119	1.03062
0.481	1.10119	1.03062
0.482	1.10113	1.03056
0.483	1.10115	1.03058
0.484	1.10111	1.03054
0.485	1.10107	1.03051
0.486	1.10102	1.03046
0.487	1.10097	1.03042
0.488	1.1009	1.03035
0.489	1.10089	1.03034
0.49	1.10084	1.03029
0.491	1.10076	1.03022
0.492	1.10071	1.03017
0.493	1.10067	1.03014
0.494	1.10064	1.03011
0.495	1.10059	1.03006
0.496	1.10052	1.03
0.497	1.10046	1.02994
0.498	1.1004	1.02988
0.499	1.10038	1.02986
0.5	1.10035	1.02984
0.501	1.10031	1.0298
0.502	1.1003	1.02979
0.503	1.10023	1.02972
0.504	1.10021	1.0297
0.505	1.10021	1.02971
0.506	1.10019	1.02969
0.507	1.10012	1.02962
0.508	1.10002	1.02953
0.509	1.09995	1.02946
0.51	1.09998	1.02949
0.511	1.0999	1.02942
0.512	1.09989	1.0294
0.513	1.09982	1.02934
0.514	1.09974	1.02927
0.515	1.09969	1.02921
0.516	1.09963	1.02916
0.517	1.09954	1.02908
0.518	1.09946	1.029
0.519	1.09942	1.02896
0.52	1.09934	1.02889
0.521	1.09932	1.02887
0.522	1.09925	1.0288
0.523	1.09915	1.02872
0.524	1.09907	1.02863
0.525	1.09894	1.02851
0.526	1.09891	1.02848
0.527	1.09884	1.02842
0.528	1.09878	1.02836
0.529	1.09865	1.02825
0.53	1.09861	1.0282
0.531	1.09854	1.02814
0.532	1.09851	1.02811
0.533	1.09849	1.02809
0.534	1.09837	1.02798
0.535	1.09829	1.02791
0.536	1.09818	1.02781
0.537	1.09819	1.02781
0.538	1.09814	1.02777
0.539	1.09806	1.0277
0.54	1.09806	1.0277
0.541	1.09803	1.02767
0.542	1.09797	1.02761
0.543	1.09788	1.02752
0.544	1.09779	1.02744
0.545	1.09771	1.02737
0.546	1.09766	1.02732
0.547	1.09756	1.02723
0.548	1.09746	1.02713
0.549	1.09737	1.02705
0.55	1.09735	1.02703
0.551	1.09727	1.02696
0.552	1.09724	1.02692
0.553	1.09717	1.02686
0.554	1.09707	1.02677
0.555	1.09698	1.02668
0.556	1.09685	1.02656
0.557	1.09678	1.0265
0.558	1.09675	1.02646
0.559	1.09662	1.02635
0.56	1.09663	1.02635
0.561	1.09658	1.02631
0.562	1.09653	1.02626
0.563	1.0965	1.02623
0.564	1.0964	1.02614
0.565	1.0963	1.02605
0.566	1.09621	1.02596
0.567	1.09613	1.02588
0.568	1.09603	1.0258
0.569	1.09594	1.02571
0.57	1.09589	1.02567
0.571	1.09579	1.02557
0.572	1.09567	1.02545
0.573	1.09562	1.0254
0.574	1.09554	1.02534
0.575	1.09547	1.02527
0.576	1.09542	1.02522
0.577	1.09532	1.02512
0.578	1.09523	1.02504
0.579	1.09508	1.0249
0.58	1.09496	1.02479
0.581	1.09488	1.02472
0.582	1.09477	1.02461
0.583	1.09468	1.02453
0.584	1.0946	1.02445
0.585	1.0945	1.02436
0.586	1.09438	1.02424
0.587	1.09424	1.02412
0.588	1.0941	1.02399
0.589	1.09403	1.02392
0.59	1.09395	1.02385
0.591	1.09386	1.02376
0.592	1.09374	1.02365
0.593	1.09365	1.02356
0.594	1.09352	1.02344
0.595	1.09344	1.02337
0.596	1.09327	1.02321
0.597	1.09322	1.02316
0.598	1.09318	1.02312
0.599	1.09304	1.02299
0.6	1.0929	1.02286
0.601	1.09281	1.02278
0.602	1.0927	1.02268
0.603	1.0926	1.02258
0.604	1.09248	1.02247
0.605	1.09235	1.02235
0.606	1.0922	1.02221
0.607	1.09205	1.02207
0.608	1.09193	1.02195
0.609	1.0918	1.02183
0.61	1.09166	1.0217
0.611	1.0915	1.02156
0.612	1.09135	1.02141
0.613	1.09126	1.02133
0.614	1.09115	1.02122
0.615	1.09103	1.02111
0.616	1.09093	1.02102
0.617	1.09076	1.02086
0.618	1.09058	1.0207
0.619	1.09045	1.02057
0.62	1.09033	1.02046
0.621	1.0902	1.02034
0.622	1.09008	1.02023
0.623	1.08997	1.02013
0.624	1.08984	1.02
0.625	1.08975	1.01991
0.626	1.0896	1.01977
0.627	1.08949	1.01967
0.628	1.08932	1.01952
0.629	1.08917	1.01937
0.63	1.08901	1.01923
0.631	1.08882	1.01904
0.632	1.08867	1.0189
0.633	1.08854	1.01878
0.634	1.08845	1.0187
0.635	1.08829	1.01855
0.636	1.08813	1.0184
0.637	1.08802	1.0183
0.638	1.08789	1.01817
0.639	1.0877	1.018
0.64	1.08755	1.01785
0.641	1.08736	1.01768
0.642	1.08713	1.01747
0.643	1.08703	1.01737
0.644	1.08686	1.01721
0.645	1.08674	1.0171
0.646	1.08658	1.01695
0.647	1.08638	1.01677
0.648	1.08622	1.01661
0.649	1.08607	1.01647
0.65	1.08594	1.01635
0.651	1.08579	1.01621
0.652	1.08568	1.01611
0.653	1.08552	1.01596
0.654	1.08538	1.01582
0.655	1.08525	1.0157
0.656	1.08506	1.01553
0.657	1.08492	1.0154
0.658	1.08475	1.01524
0.659	1.08459	1.01508
0.66	1.08446	1.01496
0.661	1.08432	1.01484
0.662	1.08417	1.0147
0.663	1.08404	1.01457
0.664	1.08391	1.01445
0.665	1.08379	1.01434
0.666	1.08363	1.01419
0.667	1.08354	1.01411
0.668	1.08336	1.01393
0.669	1.08318	1.01376
0.67	1.08302	1.01362
0.671	1.08286	1.01347
0.672	1.08266	1.01328
0.673	1.0825	1.01313
0.674	1.08238	1.01302
0.675	1.08219	1.01284
0.676	1.082	1.01266
0.677	1.08184	1.01252
0.678	1.08169	1.01237
0.679	1.08155	1.01224
0.68	1.08135	1.01206
0.681	1.08117	1.01189
0.682	1.08098	1.01171
0.683	1.08086	1.01159
0.684	1.08069	1.01143
0.685	1.08051	1.01127
0.686	1.08035	1.01112
0.687	1.08021	1.01099
0.688	1.08002	1.01081
0.689	1.07982	1.01062
0.69	1.07966	1.01047
0.691	1.07947	1.0103
0.692	1.07923	1.01007
0.693	1.07901	1.00987
0.694	1.07887	1.00974
0.695	1.07872	1.0096
0.696	1.07862	1.0095
0.697	1.07844	1.00933
0.698	1.07825	1.00915
0.699	1.07804	1.00895
0.7	1.07785	1.00878
0.701	1.07767	1.00861
0.702	1.0775	1.00845
0.703	1.0773	1.00827
0.704	1.07713	1.0081
0.705	1.07697	1.00795
0.706	1.07683	1.00782
0.707	1.07668	1.00768
0.708	1.07649	1.0075
0.709	1.07633	1.00735
0.71	1.07615	1.00719
0.711	1.07599	1.00704
0.712	1.07578	1.00684
0.713	1.07561	1.00668
0.714	1.07544	1.00652
0.715	1.07524	1.00633
0.716	1.07507	1.00617
0.717	1.07491	1.00602
0.718	1.0747	1.00583
0.719	1.07453	1.00567
0.72	1.07431	1.00547
0.721	1.07409	1.00526
0.722	1.0739	1.00508
0.723	1.07373	1.00493
0.724	1.07358	1.00478
0.725	1.0734	1.00461
0.726	1.07319	1.00442
0.727	1.073	1.00424
0.728	1.07277	1.00402
0.729	1.07256	1.00383
0.73	1.07235	1.00363
0.731	1.07219	1.00348
0.732	1.07197	1.00327
0.733	1.07174	1.00306
0.734	1.07147	1.00281
0.735	1.07124	1.00259
0.736	1.07104	1.0024
0.737	1.07083	1.00221
0.738	1.07063	1.00202
0.739	1.07043	1.00183
0.74	1.07026	1.00167
0.741	1.07003	1.00146
0.742	1.06985	1.00129
0.743	1.06964	1.0011
0.744	1.0695	1.00096
0.745	1.06935	1.00082
0.746	1.06916	1.00065
0.747	1.06898	1.00048
0.748	1.06874	1.00025
0.749	1.06851	1.00004
0.75	1.0683	0.999841
0.751	1.06808	0.999631
0.752	1.06786	0.999428
0.753	1.06766	0.999243
0.754	1.06745	0.999047
0.755	1.06724	0.998847
0.756	1.06704	0.998659
0.757	1.06684	0.998477
0.758	1.06664	0.998287
0.759	1.06638	0.998045
0.76	1.06615	0.997827
0.761	1.06592	0.997612
0.762	1.0657	0.997411
0.763	1.06548	0.997202
0.764	1.06529	0.997022
0.765	1.06503	0.996776
0.766	1.06478	0.996547
0.767	1.06452	0.996306
0.768	1.06426	0.996059
0.769	1.06402	0.995834
0.77	1.0638	0.995632
0.771	1.06358	0.995422
0.772	1.06334	0.9952
0.773	1.06314	0.995012
0.774	1.06292	0.994805
0.775	1.06273	0.99463
0.776	1.06254	0.994451
0.777	1.06233	0.994252
0.778	1.06212	0.994056
0.779	1.06189	0.993843
0.78	1.06163	0.9936
0.781	1.06146	0.993435
0.782	1.0612	0.993199
0.783	1.061	0.993006
0.784	1.06076	0.992784
0.785	1.06051	0.992548
0.786	1.06026	0.992314
0.787	1.06003	0.992097
0.788	1.05979	0.991877
0.789	1.05953	0.99163
0.79	1.05934	0.991455
0.791	1.0591	0.991226
0.792	1.05885	0.990994
0.793	1.05863	0.99079
0.794	1.05839	0.990563
0.795	1.05818	0.99037
0.796	1.05795	0.99015
0.797	1.0577	0.989918
0.798	1.05747	0.9897
0.799	1.05715	0.989409
0.8	1.05693	0.989201
0.801	1.05671	0.988997
0.802	1.05648	0.988779
0.803	1.05624	0.988553
0.804	1.05601	0.988342
0.805	1.05577	0.98811
0.806	1.05557	0.987928
0.807	1.05534	0.987709
0.808	1.05508	0.987463
0.809	1.0548	0.987204
0.81	1.05458	0.986995
0.811	1.05436	0.98679
0.812	1.05415	0.986592
0.813	1.0539	0.986361
0.814	1.05361	0.986093
0.815	1.05338	0.985872
0.816	1.05314	0.985648
0.817	1.05291	0.985432
0.818	1.05269	0.985232
0.819	1.05244	0.984998
0.82	1.0522	0.984769
0.821	1.05194	0.984526
0.822	1.05167	0.984272
0.823	1.05142	0.984037
0.824	1.05117	0.983803
0.825	1.05087	0.983524
0.826	1.0506	0.983277
0.827	1.05035	0.983042
0.828	1.05013	0.982837
0.829	1.04989	0.982608
0.83	1.04963	0.982369
0.831	1.04939	0.982146
0.832	1.04916	0.981928
0.833	1.04891	0.981693
0.834	1.04865	0.981446
0.835	1.0484	0.981216
0.836	1.04818	0.981011
0.837	1.04791	0.980753
0.838	1.04766	0.980526
0.839	1.04739	0.980274
0.84	1.04713	0.980027
0.841	1.04687	0.979784
0.842	1.04655	0.979487
0.843	1.04624	0.979192
0.844	1.04599	0.978957
0.845	1.04569	0.978681
0.846	1.04542	0.978429
0.847	1.04511	0.978139
0.848	1.04483	0.977872
0.849	1.04457	0.977634
0.85	1.04428	0.977362
0.851	1.04402	0.977117
0.852	1.04377	0.976886
0.853	1.04346	0.976591
0.854	1.04321	0.976355
0.855	1.04291	0.97608
0.856	1.04266	0.975839
0.857	1.04237	0.975571
0.858	1.0421	0.975315
0.859	1.04182	0.975053
0.86	1.04154	0.974798
0.861	1.04128	0.974553
0.862	1.04103	0.974315
0.863	1.04073	0.974032
0.864	1.04047	0.973794
0.865	1.04026	0.973598
0.866	1.03999	0.973342
0.867	1.03969	0.973064
0.868	1.0394	0.972788
0.869	1.03915	0.972554
0.87	1.03881	0.972241
0.871	1.03853	0.971977
0.872	1.03823	0.971694
0.873	1.03796	0.971446
0.874	1.03771	0.971209
0.875	1.0374	0.970921
0.876	1.03713	0.970671
0.877	1.03683	0.970384
0.878	1.03653	0.970104
0.879	1.03625	0.96984
0.88	1.03599	0.969597
0.881	1.0357	0.969331
0.882	1.03546	0.969102
0.883	1.03517	0.968832
0.884	1.0349	0.968583
0.885	1.03462	0.968321
0.886	1.03437	0.968081
0.887	1.03411	0.96784
0.888	1.03383	0.967582
0.889	1.03358	0.967343
0.89	1.03333	0.967108
0.891	1.03304	0.966839
0.892	1.03275	0.966572
0.893	1.03247	0.966303
0.894	1.03219	0.966042
0.895	1.03191	0.965785
0.896	1.03162	0.965514
0.897	1.03132	0.965229
0.898	1.03103	0.964959
0.899	1.03077	0.964711
0.9	1.03046	0.964426
0.901	1.03015	0.964139
0.902	1.02987	0.963874
0.903	1.02955	0.963575
0.904	1.02926	0.9633
0.905	1.02903	0.963085
0.906	1.02876	0.962832
0.907	1.02846	0.962555
0.908	1.02818	0.96229
0.909	1.02789	0.962023
0.91	1.02761	0.961753
0.911	1.02731	0.961477
0.912	1.02704	0.961227
0.913	1.02674	0.960945
0.914	1.02644	0.960663
0.915	1.02617	0.960409
0.916	1.02584	0.960098
0.917	1.02554	0.959824
0.918	1.02524	0.959543
0.919	1.02496	0.959279
0.92	1.02467	0.959009
0.921	1.02438	0.958731
0.922	1.02407	0.958446
0.923	1.02381	0.958199
0.924	1.02351	0.957918
0.925	1.0232	0.957627
0.926	1.02292	0.957364
0.927	1.02262	0.957083
0.928	1.02232	0.956807
0.929	1.02203	0.956534
0.93	1.02174	0.95626
0.931	1.02141	0.955955
0.932	1.02115	0.955711
0.933	1.02082	0.955401
0.934	1.02053	0.955127
0.935	1.02025	0.954873
0.936	1.01995	0.95459
0.937	1.01963	0.954288
0.938	1.0193	0.95398
0.939	1.019	0.953702
0.94	1.01873	0.953444
0.941	1.01841	0.953149
0.942	1.01813	0.952882
0.943	1.01783	0.952605
0.944	1.01756	0.952348
0.945	1.01724	0.952052
0.946	1.01695	0.951781
0.947	1.01663	0.95148
0.948	1.01635	0.951219
0.949	1.01605	0.950937
0.95	1.01574	0.95065
0.951	1.01539	0.950324
0.952	1.0151	0.950045
0.953	1.01478	0.94975
0.954	1.01445	0.94944
0.955	1.01414	0.949147
0.956	1.01384	0.948867
0.957	1.01351	0.948562
0.958	1.01319	0.948265
0.959	1.01287	0.947963
0.96	1.01257	0.94768
0.961	1.01225	0.947377
0.962	1.01189	0.947046
0.963	1.01161	0.946787
0.964	1.01131	0.9465
0.965	1.01101	0.946217
0.966	1.01069	0.945924
0.967	1.01039	0.945643
0.968	1.01008	0.945349
0.969	1.00975	0.945046
0.97	1.00944	0.944755
0.971	1.00915	0.944478
0.972	1.00886	0.944206
0.973	1.00853	0.943902
0.974	1.00821	0.943603
0.975	1.00791	0.943317
0.976	1.00759	0.943022
0.977	1.00729	0.942735
0.978	1.007	0.942465
0.979	1.00669	0.94218
0.98	1.00638	0.941888
0.981	1.00608	0.941603
0.982	1.00579	0.941332
0.983	1.0055	0.941061
0.984	1.00519	0.940771
0.985	1.00486	0.940464
0.986	1.00455	0.940175
0.987	1.00422	0.93987
0.988	1.00392	0.939581
0.989	1.00362	0.939309
0.99	1.00328	0.93899
0.991	1.00296	0.938687
0.992	1.00266	0.938403
0.993	1.00232	0.93809
0.994	1.00201	0.937794
0.995	1.00165	0.937464
0.996	1.00133	0.937162
0.997	1.00098	0.936832
0.998	1.00065	0.936526
0.999	1.0003	0.936194
1	1	0.935916
