#LEN_TT_CORR 55
#BRANCHINGR 0.000000
#TIME_MAX 500.000000
#ITERATIONS 1000000
#t	0th	1st	2nd	3rd	4th moment
1.861646	0.473690	1.005465	4.795935	45.467865	659.195319	
3.465724	0.306204	1.008377	8.053615	116.963231	2452.802491	
6.451950	0.175938	1.018601	14.354067	341.875895	11412.098559	
12.011244	0.094789	1.025141	26.003583	1067.534567	61109.176971	
22.360680	0.050034	1.035358	47.396832	3363.439666	322728.882936	
41.627660	0.026539	1.052391	89.263535	11549.193339	1993332.810239	
77.495949	0.014279	1.076778	166.647168	38870.302104	12171166.686132	
144.269991	0.007874	1.121574	326.811652	146831.497284	93008190.300904	
268.579588	0.004284	1.161819	638.858951	535055.404461	602148534.129683	
500.000000	0.000000	0.000000	0.000000	0.000000	0.000000	
# 0 out of 1000000 runs discarded (0 %)
