#LEN_TT_CORR 55
#BRANCHINGR 0.000000
#TIME_MAX 500.000000
#ITERATIONS 1000000
#t	0th	1st	2nd	3rd	4th moment
1.861646	0.473026	1.001350	4.744718	44.382574	627.368222	
3.465724	0.305543	1.002490	7.959628	114.600526	2372.877484	
6.451950	0.175402	1.007550	14.075178	330.967548	10830.489078	
12.011244	0.094080	1.010028	25.454590	1034.317812	57858.082678	
22.360680	0.049297	1.015583	46.730323	3341.735099	320473.308595	
41.627660	0.025863	1.018364	85.986570	10945.598132	1824600.690642	
77.495949	0.013748	1.013652	153.750612	34285.813962	9866815.692480	
144.269991	0.007380	1.034345	295.518417	126817.058177	72662338.463001	
268.579588	0.003929	1.056517	594.160463	511519.568563	591694869.408251	
500.000000	0.000000	0.000000	0.000000	0.000000	0.000000	
# 0 out of 1000000 runs discarded (0 %)
