#LEN_TT_CORR 55
#BRANCHINGR 0.000000
#TIME_MAX 500.000000
#ITERATIONS 1000000
#t	0th	1st	2nd	3rd	4th moment
1.861646	0.155720	0.155720	0.155720	0.155720	0.155720	
3.465724	0.031282	0.031282	0.031282	0.031282	0.031282	
6.451950	0.001536	0.001536	0.001536	0.001536	0.001536	
12.011244	0.000007	0.000007	0.000007	0.000007	0.000007	
22.360680	0.000000	0.000000	0.000000	0.000000	0.000000	
41.627660	0.000000	0.000000	0.000000	0.000000	0.000000	
77.495949	0.000000	0.000000	0.000000	0.000000	0.000000	
144.269991	0.000000	0.000000	0.000000	0.000000	0.000000	
268.579588	0.000000	0.000000	0.000000	0.000000	0.000000	
500.000000	0.000000	0.000000	0.000000	0.000000	0.000000	
# 2000564 out of 3000564 runs discarded (66.6729 %)
