#BRANCHINGR -0.100000
#TIME_MAX 50.000000
#ITERATIONS 50000
#t	0th	1st	2nd	3rd	4th moment
1.081383	0.641660	1.111460	4.199780	34.319300	439.263620	
1.169388	0.621680	1.123900	4.500020	38.085340	496.991060	
1.264556	0.602360	1.136260	4.871900	44.002540	609.945740	
1.367469	0.582140	1.147600	5.260080	50.361400	729.754560	
1.478758	0.561100	1.161560	5.680480	56.902040	849.025120	
1.599103	0.539420	1.175100	6.110220	63.669780	975.326940	
1.729242	0.517340	1.183880	6.572760	73.072040	1198.227960	
1.869972	0.497820	1.203080	7.111840	82.238240	1378.810480	
2.022156	0.476760	1.218140	7.711500	94.814900	1685.070300	
2.186724	0.455180	1.235980	8.435420	110.519860	2076.873260	
2.364686	0.434800	1.256420	9.096260	122.708060	2341.967540	
2.557130	0.414240	1.278080	10.006440	145.889120	3036.378120	
2.765236	0.394600	1.302640	10.954600	167.703520	3567.800680	
2.990278	0.374440	1.340780	12.310140	204.576380	4763.632380	
3.233635	0.355240	1.377560	13.780440	248.379080	6345.465240	
3.496797	0.337020	1.421300	15.668980	308.140940	8501.295460	
3.781375	0.319240	1.458220	17.332740	359.942140	10496.978340	
4.089114	0.302860	1.505100	19.662620	458.091660	15661.053020	
4.421897	0.286160	1.560160	22.472520	569.071240	20759.090520	
4.781762	0.271300	1.615620	25.497420	706.980420	28055.723820	
5.170915	0.257180	1.692540	29.654660	912.387780	40641.384500	
5.591738	0.242480	1.757560	33.951120	1144.326040	55654.662480	
6.046808	0.228000	1.836420	39.102980	1434.107700	74841.849860	
6.538914	0.214500	1.917780	44.720500	1743.486900	93114.786580	
7.071068	0.202720	2.019960	52.376520	2267.160120	133889.236200	
7.646530	0.191580	2.142960	62.042760	2965.856880	191622.386760	
8.268825	0.181840	2.282240	73.553800	3882.485840	277051.876360	
8.941764	0.172060	2.436100	87.749980	5132.729140	406549.349980	
9.669468	0.162840	2.627240	106.335960	6901.216160	600955.139400	
10.456396	0.154260	2.854120	129.607760	9318.855400	894625.922480	
11.307365	0.146460	3.130200	160.786920	12974.431560	1402381.194120	
12.227588	0.139780	3.432140	199.635420	18159.708020	2199584.485740	
13.222702	0.133760	3.795660	252.149700	25933.833060	3516915.660180	
14.298800	0.128800	4.224620	321.896100	38017.975220	5943723.469140	
15.462475	0.124000	4.732040	417.648640	57948.992240	10984392.356080	
16.720852	0.119200	5.359640	556.767840	92555.659040	21436430.960400	
18.081639	0.115320	6.158820	756.870220	148959.729180	41242480.125340	
19.553171	0.111680	7.168020	1051.854820	243515.124540	77031587.738260	
21.144460	0.108640	8.405880	1461.808400	393239.502360	142800365.572400	
22.865253	0.106060	10.005960	2122.137160	699505.842480	313497643.682680	
24.726088	0.103740	12.006120	3096.882240	1245684.198720	690180097.359120	
26.738362	0.101540	14.713300	4736.600420	2359224.323620	1589554871.462660	
28.914401	0.099560	18.378380	7495.581100	4735806.018860	4050053493.488620	
31.267532	0.098140	23.235960	12111.028920	9791571.813480	10739654878.867800	
33.812167	0.096460	30.023500	20423.144180	21662251.692220	31697803189.094420	
36.563891	0.095440	39.580660	35505.885260	49232851.113460	93765237665.364620	
39.539557	0.094140	53.208240	64603.992880	121716279.295680	315989350139.401360	
42.757392	0.093580	73.249000	123187.811080	320990753.338120	1148831778697.279240	
46.237102	0.092980	103.747300	247523.305860	909787539.876460	4549383341577.885300	
50.000000	0.092580	150.953220	526346.457980	2819230701.001140	20419511591940.117020	
